<svg width="35" height="28" viewBox="0 0 35 28" fill="none" xmlns="http://www.w3.org/2000/svg">
<path fill-rule="evenodd" clip-rule="evenodd" d="M6.38071 9.51184H15.6904C28.8053 9.51184 34.0237 14.939 34.0237 27.8452H30.6904C30.6904 16.7513 26.9344 12.8452 15.6904 12.8452H6.38071L13.5355 20L11.1785 22.357L0 11.1785L11.1785 0L13.5355 2.35702L6.38071 9.51184Z" fill="white"/>
</svg>
