<svg width="46" height="37" viewBox="0 0 46 37" fill="none" xmlns="http://www.w3.org/2000/svg">
<path opacity="0.4" d="M6.70903 21.2101C4.42441 20.1256 4.42441 16.8744 6.70903 15.7899L30.4635 4.51339C32.454 3.56846 34.75 5.02009 34.75 7.22353L34.75 29.7765C34.75 31.9799 32.454 33.4315 30.4635 32.4866L6.70903 21.2101Z" fill="url(#paint0_linear)"/>
<path d="M9.45193 14.1455C9.58397 13.3296 10.3869 12.8024 11.188 13.0055L27.2009 17.065C28.3882 17.366 28.6517 18.9347 27.6277 19.6071L8.97554 31.8547C7.95161 32.527 6.61683 31.6618 6.81255 30.4526L9.45193 14.1455Z" fill="url(#paint1_linear)"/>
<path d="M0 18.5C0 13.4449 4.09797 9.34692 9.15306 9.34692H20.8878C25.9429 9.34692 30.0408 13.4449 30.0408 18.5C30.0408 23.5551 25.9429 27.653 20.8878 27.653H9.15306C4.09797 27.653 0 23.5551 0 18.5Z" fill="url(#paint2_linear)"/>
<defs>
<linearGradient id="paint0_linear" x1="0.999999" y1="18.5" x2="46" y2="18.5" gradientUnits="userSpaceOnUse">
<stop stop-color="#1D976C"/>
<stop offset="1" stop-color="#6CF8A0"/>
</linearGradient>
<linearGradient id="paint1_linear" x1="15.0204" y1="9.34692" x2="15.0204" y2="32.0896" gradientUnits="userSpaceOnUse">
<stop stop-color="#1D976C"/>
<stop offset="1" stop-color="#6CF8A0"/>
</linearGradient>
<linearGradient id="paint2_linear" x1="15.0204" y1="9.34692" x2="15.0204" y2="32.0896" gradientUnits="userSpaceOnUse">
<stop stop-color="#1D976C"/>
<stop offset="1" stop-color="#6CF8A0"/>
</linearGradient>
</defs>
</svg>
